public class Main {

    public static void main(String[] args) {}

    System.out.println("Two numb");

        System.out.println("Three numb");
 
        System.out.println("Abstract");

        System.out.println("Online");

        System.out.println("League");

}
